[gd_scene load_steps=3 format=2]

[ext_resource path="res://fx/slash/SlashFX.gd" type="Script" id=1]
[ext_resource path="res://penguin-sprite/sensei/dash.png" type="Texture" id=2]

[node name="SlashFX" type="Position2D"]

pause_mode = 2
z_index = 200
z_as_relative = false
script = ExtResource( 1 )
_sections_unfolded = [ "Pause", "Visibility", "Z Index" ]

[node name="dash" type="Sprite" parent="." index="0"]

scale = Vector2( 10, 0.5 )
texture = ExtResource( 2 )
_sections_unfolded = [ "Transform" ]

[node name="Timer" type="Timer" parent="." index="1"]

process_mode = 1
wait_time = 0.25
one_shot = true
autostart = true

[node name="Tween" type="Tween" parent="." index="2"]

repeat = false
playback_process_mode = 1
playback_speed = 1.0
playback/active = false
playback/repeat = false
playback/speed = 1.0

[connection signal="timeout" from="Timer" to="." method="_timeout"]


