[gd_scene load_steps=6 format=2]

[ext_resource path="res://penguin-sprite/sensei/dash.png" type="Texture" id=1]

[sub_resource type="CanvasItemMaterial" id=1]

render_priority = 0
blend_mode = 0
light_mode = 0
_sections_unfolded = [ "Resource" ]

[sub_resource type="Gradient" id=5]

offsets = PoolRealArray( 0, 1 )
colors = PoolColorArray( 0.096817, 0.295263, 0.527344, 1, 0.078125, 0.124268, 0.5, 0 )

[sub_resource type="GradientTexture" id=6]

flags = 4
gradient = SubResource( 5 )
width = 2048

[sub_resource type="ParticlesMaterial" id=4]

render_priority = 0
trail_divisor = 1
emission_shape = 2
emission_box_extents = Vector3( 1, 100, 1 )
flag_align_y = false
flag_rotate_y = false
flag_disable_z = true
spread = 0.0
flatness = 0.0
gravity = Vector3( 0, 0, 0 )
initial_velocity = 1000.0
initial_velocity_random = 0.0
angular_velocity = 0.0
angular_velocity_random = 0.0
orbit_velocity = 0.0
orbit_velocity_random = 0.0
linear_accel = 0.0
linear_accel_random = 0.0
radial_accel = 0.0
radial_accel_random = 0.0
tangential_accel = 0.0
tangential_accel_random = 0.0
damping = 0.0
damping_random = 0.0
angle = 0.0
angle_random = 0.0
scale = 1.0
scale_random = 0.0
color_ramp = SubResource( 6 )
hue_variation = 0.0
hue_variation_random = 0.0
anim_speed = 0.0
anim_speed_random = 0.0
anim_offset = 0.0
anim_offset_random = 0.0
anim_loop = false
_sections_unfolded = [ "Color", "Emission Shape", "Trail" ]

[node name="DashParticles" type="Particles2D" index="0"]

material = SubResource( 1 )
emitting = false
amount = 4
lifetime = 0.2
one_shot = false
preprocess = 0.0
speed_scale = 1.0
explosiveness = 0.0
randomness = 0.0
fixed_fps = 0
fract_delta = true
visibility_rect = Rect2( -100, -100, 200, 200 )
local_coords = true
draw_order = 0
process_material = SubResource( 4 )
texture = ExtResource( 1 )
normal_map = null
h_frames = 1
v_frames = 1
_sections_unfolded = [ "Drawing", "Material", "Process Material", "Textures", "Time" ]

[node name="AutoDestroy" type="Timer" parent="." index="0"]

process_mode = 1
wait_time = 0.5
one_shot = true
autostart = true

[connection signal="timeout" from="AutoDestroy" to="." method="queue_free" flags=6]


