[gd_scene load_steps=3 format=2]

[ext_resource path="res://credits/Cameo.gd" type="Script" id=1]
[ext_resource path="res://penguin-sprite/sensei/PenguinSprite.tscn" type="PackedScene" id=2]

[node name="Cameo" type="Position2D"]

position = Vector2( 910, 340 )
script = ExtResource( 1 )
skip = false

[node name="PenguinSprite" parent="." index="0" instance=ExtResource( 2 )]

[node name="Target" type="Position2D" parent="." index="1"]

position = Vector2( -990, 0 )
_sections_unfolded = [ "Transform" ]


